{
    "KPlugin": {
        "Category": "Appearance",
        "Description": "Highlight the appropriate window when hovering over taskbar entries",
        "Description[ar]": "إبراز النافذة المناسبة عند المرور فوق مُدخلات شريط المهام",
        "Description[az]": "Tapşıqıq paneli üzərində hərəkət edərkən müvadiq pəncərənin işıqlanması",
        "Description[bg]": "Осветяване на съответния прозорец при задържане на курсора на мишката над записите в лентата на задачите",
        "Description[ca@valencia]": "Ressalta la finestra apropiada en passar el cursor sobre les entrades de la barra de tasques",
        "Description[ca]": "Ressalta la finestra apropiada en passar el cursor sobre les entrades de la barra de tasques",
        "Description[cs]": "Zvýraznit příslušné okno při přejezdu nad jeho položku v pruhu úloh",
        "Description[de]": "Hebt das dazugehörige Fenster hervor, wenn sich der Mauszeiger über dem Fensterleisten-Eintrag befindet",
        "Description[en_GB]": "Highlight the appropriate window when hovering over taskbar entries",
        "Description[es]": "Resaltar la ventana correspondiente al pasar el ratón sobre las entradas de la barra de tareas",
        "Description[eu]": "Nabarmendu dagokion leihoa sagua ataza-barraren sarreren gainetik igarotzean",
        "Description[fi]": "Korosta vastaavaa ikkunaa leijuttaessa tehtäväpalkkikohteiden yllä",
        "Description[fr]": "Mettre en valeur la fenêtre appropriée lors du survol des entrées de la barre de tâches",
        "Description[hu]": "Ha az egérmutató egy ablakbejegyzés fölé kerül a feladatsávon, a megfelelő ablak kiemelést kap",
        "Description[ia]": "Evidentia le appropriate fenestra quando il es suspendite super entratas de barra de carga",
        "Description[id]": "Soroti jendela yang sesuai ketika kursor berada di entri bilah-tugas",
        "Description[it]": "Evidenzia la finestra appropriata quando passi sugli elementi della barra delle applicazioni",
        "Description[ja]": "タスクバーのエントリ上をホバーしたときウィンドウを強調表示します",
        "Description[ko]": "작업 표시줄의 창 항목을 지나다닐 때 해당하는 창을 강조합니다",
        "Description[nl]": "Laat het betreffende venster oplichten als de muisaanwijzer over taakbalkitems beweegt",
        "Description[nn]": "Framhev vindauga når peikaren vert halden over ikon på oppgåvelinja",
        "Description[pl]": "Podświetla odpowiednie okno po najechaniu na wpis paska zadań",
        "Description[pt]": "Realçar a janela apropriada ao passar o cursor sobre os itens das tarefas",
        "Description[pt_BR]": "Realça a janela apropriada ao passar o ponteiro do mouse sobre os itens da barra de tarefas",
        "Description[ro]": "Evidențiază fereastra potrivită la planarea peste înregistrările barei de sarcini",
        "Description[ru]": "Подсветка окна при наведении и соответствующем элементе в панели задач",
        "Description[sk]": "Zvýrazní príslušné okno pri prechode kurzorom nad položkami v paneli úloh",
        "Description[sl]": "Poudari ustrezno okno, ko je kazalec miške nad vnosi opravilne vrstice",
        "Description[sv]": "Markera motsvarande fönster när pekaren hålls över poster i aktivitetsfältet",
        "Description[ta]": "பணிப்பட்டை பதிவுகளின்மீது சுட்டியை வைக்கும்போது உரிய சாளரத்தை முன்னிலைப்படுத்தும்",
        "Description[tr]": "Görev çubuğu girdilere arasında gezinirken uygun pencereleri vurgula",
        "Description[uk]": "Підсвічування відповідного вікна у відповідь на наведення вказівника миші на елементи панелі задач",
        "Description[vi]": "Tô sáng cửa sổ thích hợp khi đảo chuột trên các mục thanh tác vụ",
        "Description[x-test]": "xxHighlight the appropriate window when hovering over taskbar entriesxx",
        "Description[zh_CN]": "鼠标悬停在任务栏项上时突出显示对应的窗口",
        "Description[zh_TW]": "滑鼠移至工作列項目上時突顯其對應的視窗",
        "EnabledByDefault": true,
        "Id": "highlightwindow",
        "License": "GPL",
        "Name": "Highlight Window",
        "Name[ar]": "إبراز النوافذ",
        "Name[az]": "Pəncərəni vurğulamaq",
        "Name[bg]": "Осветяване на прозореца",
        "Name[ca@valencia]": "Ressaltat de finestra",
        "Name[ca]": "Ressaltat de finestra",
        "Name[cs]": "Zvýraznit okno",
        "Name[de]": "Fenster hervorheben",
        "Name[en_GB]": "Highlight Window",
        "Name[es]": "Resaltar ventana",
        "Name[eu]": "Nabarmendu leihoa",
        "Name[fi]": "Ikkunan korostus",
        "Name[fr]": "Mettre en valeur une fenêtre",
        "Name[hu]": "Ablakkiemelés",
        "Name[ia]": "Evidentia fenestra",
        "Name[id]": "Sorot Jendela",
        "Name[it]": "Evidenzia le finestre",
        "Name[ja]": "ウィンドウを強調表示",
        "Name[ka]": "ფანჯრის გამოკვეთა",
        "Name[ko]": "창 강조하기",
        "Name[nl]": "Venster op laten lichten",
        "Name[nn]": "Framhev vindauge",
        "Name[pl]": "Podświetlanie okien",
        "Name[pt]": "Realce da Janela",
        "Name[pt_BR]": "Janela realçada",
        "Name[ro]": "Evidențiere fereastră",
        "Name[ru]": "Подсвечивать окно",
        "Name[sk]": "Zvýrazniť okno",
        "Name[sl]": "Poudari okno",
        "Name[sv]": "Markera fönster",
        "Name[ta]": "சாளரத்தை முன்னிலைப்படுத்து",
        "Name[tr]": "Pencereyi Vurgula",
        "Name[uk]": "Підсвічування вікна",
        "Name[vi]": "Tô sáng cửa sổ",
        "Name[x-test]": "xxHighlight Windowxx",
        "Name[zh_CN]": "突出显示窗口",
        "Name[zh_TW]": "突顯視窗"
    },
    "org.kde.kwin.effect": {
        "internal": true
    }
}
