{
    "KPackageStructure": "KWin/Effect",
    "KPlugin": {
        "Authors": [
            {
                "Email": "thomas.luebking@gmail.com",
                "Name": "Thomas Lübking",
                "Name[ar]": "توماس لوبكينج",
                "Name[bg]": "Thomas Lübking",
                "Name[ca@valencia]": "Thomas Lübking",
                "Name[ca]": "Thomas Lübking",
                "Name[es]": "Thomas Lübking",
                "Name[eu]": "Thomas Lübking",
                "Name[fr]": "Thomas Lübking",
                "Name[it]": "Thomas Lübking",
                "Name[ka]": "Thomas Lübking",
                "Name[nl]": "Thomas Lübking",
                "Name[pt]": "Thomas Lübking",
                "Name[sl]": "Thomas Lübking",
                "Name[ta]": "தாமஸ் லுபுகிங்",
                "Name[tr]": "Thomas Lübking",
                "Name[uk]": "Thomas Lübking",
                "Name[x-test]": "xxThomas Lübkingxx"
            }
        ],
        "Category": "Show Desktop Animation",
        "Description": "Suck windows into the desktop",
        "Description[ar]": "تمتص النوافذ في سطح المكتب",
        "Description[bg]": "Поглъщане на прозорците в работния плот",
        "Description[ca@valencia]": "Apega les finestres a l'escriptori",
        "Description[ca]": "Enganxa les finestres a l'escriptori",
        "Description[es]": "Aspirar las ventanas en el escritorio",
        "Description[eu]": "Mahaigainak leihoak xurgatzea",
        "Description[fr]": "Aspirer les fenêtres dans le bureau",
        "Description[it]": "Risucchia le finestre nel desktop",
        "Description[nl]": "Zuig vensters in het bureaublad",
        "Description[pt]": "Aspirar as janelas para o ecrã",
        "Description[sl]": "Posesajte okna na namizje",
        "Description[ta]": "பணிமேடைக்குள் சாளரங்கள் உறிஞ்சப்படுவதுபோல் அசைவூட்டும்",
        "Description[tr]": "Pencereleri masaüstüne çek",
        "Description[uk]": "Засмоктування вікон до стільниці",
        "Description[x-test]": "xxSuck windows into the desktopxx",
        "EnabledByDefault": false,
        "Icon": "preferences-system-windows-effect-eyeonscreen",
        "Id": "kwin4_effect_eyeonscreen",
        "License": "GPL",
        "Name": "Eye on Screen",
        "Name[ar]": "عين على الشاشة",
        "Name[bg]": "Поглед върху екрана",
        "Name[ca@valencia]": "Ull a la pantalla",
        "Name[ca]": "Ull a la pantalla",
        "Name[es]": "Ojo en la pantalla",
        "Name[eu]": "Begirada pantailan",
        "Name[fr]": "Les yeux sur l'écran",
        "Name[it]": "Occhio su schermo",
        "Name[ka]": "სენსორული ეკრანი",
        "Name[nl]": "Oog op scherm",
        "Name[pt]": "Olho no Ecrã",
        "Name[sl]": "Oko na zaslonu",
        "Name[ta]": "திரையில் கண்",
        "Name[tr]": "Göz Ekranda",
        "Name[uk]": "Око на екрані",
        "Name[x-test]": "xxEye on Screenxx",
        "Version": "0.1.0"
    },
    "X-KDE-Ordering": "50",
    "X-KWin-Exclusive-Category": "show-desktop",
    "X-Plasma-API": "javascript",
    "X-Plasma-MainScript": "code/main.js"
}
