{
    "KPlugin": {
        "BugReportUrl": "https://bugs.kde.org/enter_bug.cgi?product=systemsettings&component=kcm_kwineffects",
        "Description": "Configure compositor settings for desktop effects",
        "Description[ar]": "اضبط إعدادات المركب لتأثيرات سطح المكتب",
        "Description[az]": "İş masası effektləri üçün düzücünün ayarlarını tənzimləyin",
        "Description[bg]": "Конфигуриране на настройките на композитора за ефекти на работния плот",
        "Description[ca@valencia]": "Configura la configuració del compositor per als efectes de l'escriptori",
        "Description[ca]": "Configura l'arranjament del compositor per als efectes d'escriptori",
        "Description[de]": "Compositor-Einstellungen für Arbeitsflächen-Effekte einrichten",
        "Description[en_GB]": "Configure compositor settings for desktop effects",
        "Description[es]": "Configurar las preferencias del compositor para los efectos del escritorio",
        "Description[eu]": "Konfiguratu konposatzailearen ezarpenak mahaigaineko efektuetarako",
        "Description[fi]": "Koostamisasetukset työpöytätehosteille",
        "Description[fr]": "Configurer les paramètres du compositeur pour les effets de bureau",
        "Description[id]": "Konfigurasikan pengaturan kompositor untuk efek desktop",
        "Description[it]": "Configura impostazioni del compositore per gli effetti del desktop",
        "Description[ja]": "デスクトップエフェクトを設定",
        "Description[ko]": "데스크톱 효과에 사용되는 컴포지터 설정",
        "Description[nl]": "Instellingen van compositor configureren voor bureaubladeffecten",
        "Description[nn]": "Samansetjarinnstillingar for skrivebordseffektar",
        "Description[pl]": "Ustawienia kompozytora dla efektów pulpitu",
        "Description[pt]": "Configurar as definições dos efeitos do ecrã do compositor",
        "Description[pt_BR]": "Defina as configurações do compositor para os efeitos da área de trabalho",
        "Description[ru]": "Настройка модуля обеспечения эффектов рабочего стола",
        "Description[sk]": "Nastavenia kompozítora pre efekty plochy",
        "Description[sl]": "Prilagodite nastavitve skladanja za učinke namizja",
        "Description[sv]": "Anpassa sammansättningsinställningar för skrivbordseffekter",
        "Description[ta]": "பணிமேடை அசைவூட்டங்களுக்கான சாளரநிரல் அமைப்புகளை மாற்றுங்கள்",
        "Description[tr]": "Masaüstü efektleri için bileşikleştirici ayarlarını yapılandır",
        "Description[uk]": "Налаштовування параметрів засобу композиції для ефектів стільниці",
        "Description[vi]": "Cấu hình các thiết lập trình kết hợp cho các hiệu ứng bàn làm việc",
        "Description[x-test]": "xxConfigure compositor settings for desktop effectsxx",
        "Description[zh_CN]": "配置桌面的显示特效合成器设置",
        "Description[zh_TW]": "設定合成器的桌面效果選項",
        "FormFactors": [
            "desktop",
            "tablet"
        ],
        "Icon": "preferences-desktop-effects",
        "Name": "Desktop Effects",
        "Name[ar]": "تأثيرات سطح المكتب",
        "Name[az]": "İş masası effektləri",
        "Name[bg]": "Ефекти на работния плот",
        "Name[ca@valencia]": "Efectes de l'escriptori",
        "Name[ca]": "Efectes d'escriptori",
        "Name[cs]": "Efekty na ploše",
        "Name[de]": "Arbeitsflächen-Effekte",
        "Name[en_GB]": "Desktop Effects",
        "Name[es]": "Efectos del escritorio",
        "Name[eu]": "Mahaigaineko efektuak",
        "Name[fi]": "Työpöytätehosteet",
        "Name[fr]": "Effets de bureau",
        "Name[id]": "Efek Desktop",
        "Name[it]": "Effetti del desktop",
        "Name[ja]": "デスクトップエフェクト",
        "Name[ka]": "სამუშაო მაგიდის ეფექტები",
        "Name[ko]": "데스크톱 효과",
        "Name[nl]": "Bureaubladeffecten",
        "Name[nn]": "Skrivebords­effektar",
        "Name[pl]": "Efekty pulpitu",
        "Name[pt]": "Efeitos do Ecrã",
        "Name[pt_BR]": "Efeitos da área de trabalho",
        "Name[ru]": "Эффекты рабочего стола",
        "Name[sk]": "Efekty plochy",
        "Name[sl]": "Namizni učinki",
        "Name[sv]": "Skrivbordseffekter",
        "Name[ta]": "பணிமேடை அசைவூட்டங்கள்",
        "Name[tr]": "Masaüstü Efektleri",
        "Name[uk]": "Ефекти стільниці",
        "Name[vi]": "Hiệu ứng bàn làm việc",
        "Name[x-test]": "xxDesktop Effectsxx",
        "Name[zh_CN]": "桌面特效",
        "Name[zh_TW]": "桌面效果"
    },
    "X-DocPath": "kcontrol/kwineffects/index.html",
    "X-KDE-Keywords": "kwin,window,manager,effect,3D effects,2D effects,graphical effects,desktop effects,animations,various animations,window management effects,window switching effect,desktop switching effect,animations,desktop animations,drivers,driver settings,rendering,render,invert effect,looking glass effect,magnifier effect,snap helper effect,track mouse effect,zoom effect,blur effect,fade effect,fade desktop effect,fall apart effect,glide effect,highlight window effect,login effect,logout effect,magic lamp effect,minimize animation effect,mouse mark effect,scale effect,screenshot effect,sheet effect,slide effect,sliding popups effect,thumbnail aside effect,translucency,translucency effect,transparency,window geometry effect,wobbly windows effect,startup feedback effect,dialog parent effect,dim inactive effect,dim screen effect,slide back effect,eye candy,candy,show FPS effect,show paint effect,cover switch effect,desktop cube effect,desktop cube animation effect,desktop grid effect,flip switch effect,present windows effect,resize window effect,background contrast effect,bling,fading,movement,motion,overview windows effect,accessibility",
    "X-KDE-Keywords[ar]": "كوين,مدير النوافذ,نافذة,نوافذ,تحريك,تركيب,تأثير,تأثيرات,تنقل,انكماش,تحريك,تبديل,طيران,إتاحة",
    "X-KDE-Keywords[az]": "kwin,window,manager,effect,3D effects,2D effects,graphical effects,desktop effects,animations,various animations,window management effects,window switching effect,desktop switching effect,animations,desktop animations,drivers,driver settings,rendering,render,invert effect,looking glass effect,magnifier effect,snap helper effect,track mouse effect,zoom effect,blur effect,fade effect,fade desktop effect,fall apart effect,glide effect,highlight window effect,login effect,logout effect,magic lamp effect,minimize animation effect,mouse mark effect,scale effect,screenshot effect,sheet effect,slide effect,sliding popups effect,thumbnail aside effect,translucency,translucency effect,transparency,window geometry effect,wobbly windows effect,startup feedback effect,dialog parent effect,dim inactive effect,dim screen effect,slide back effect,eye candy,candy,show FPS effect,show paint effect,cover switch effect,desktop cube effect,desktop cube animation effect,desktop grid effect,flip switch effect,present windows effect,resize window effect,background contrast effect,bling,fading,movement,motion,overview windows effect,accessibility, pəncərə,menecer,idarəedici,effekt,3D effekt,2D effekt,qrafik effektlər,iş masası effektləri,animasiyalar,canlanmalar,dəyişən animasiyalar,pəncərə idarə edilməsi effekti,pəncərədən-pəncərəyə keçmə effekti,iş masalarını dəyişmə effektləri,iş masası animasiyaları,sürücülər,sürücü ayarları,təsvirin işlənməsi,tərs çevirmə effekti,şüşə effekti,böyüdücü effekti,ani köməkçi effekti,kursorun izlənməsi effekti,miqyas effekti,bulanıqlıq effekti,solma effekti,iş masası yox olması effekti,daöılma effekti,sürüşmə effekti,pəncərənin vurğulanması effekti,giriş effekti,çıxış effekti,sehirli lampa effekti,yığılma animasiyası effekti,siçanla işarələmə effekti,miqyaslama effekti,ekran şəkili şəkimi effekti,səhifə effekti,sürüşmə effekti,ani pəncərə sürüşməsi effekti,kiçik yan eskiz effekti,şəffaflıq, şəffalıq effekti,pəncərənin mövqeyi effekti,dalğalanan pəncərə effekti,əks əlaqənin başlama effekti,əsas dialoq effekti,qeyri-aktiv olanların tutqunlaşması effekti,ekranın tutqunlaşması effekti,arxaya sürüşmə effekti,konfet,FPS-in göstərilməsi effekti,rəsm çəkmə effekti,örtük dyişdirmə effekti,iş masası kubu effekti,iş masası kubu animasiyası,iş masası toru effekti,çevirmə effekti,pəncərə təqdimatı effekti,pəncərə ölçüsünün dəyişdirilməsi effekti,arxa plan kontrastı effekti,parıltı,solma,hərəkət,gəzinti,pəncərələrə baxış effekti,xüsusi imkanlar",
    "X-KDE-Keywords[ca@valencia]": "kwin,finestra,gestor,efecte,efectes 3D,efectes 2D,efectes gràfics,efectes d'escriptori,animacions,animacions diverses,efectes en la gestió de les finestres,efecte en el canvi de finestra,efecte en el canvi d'escriptori,animacions,animacions a l'escriptori,controladors,configuració dels controladors,renderització,render,efecte d'inversió,efecte d'aspecte de vidre,efecte de lupa,efecte ajudant del desplaçament,efecte de seguiment del ratolí,efecte de zoom,efecte de difuminat,efecte d'esvaïment,efecte d'esvaïment de l'escriptori,efecte de trencament,efecte de lliscament,efecte de ressaltat de la finestra,efecte en l'inici de la sessió,efecte en eixir de la sessió,efecte de làmpada màgica,efecte d'animació de la minimització,efecte de marca del ratolí,efecte d'apropament,efecte de captura de la pantalla,efecte de full,efecte de diapositiva,efecte de missatges emergents lliscants,efecte de miniatures laterals,translucidesa,efecte de translucidesa,transparència,efecte de geometria de la finestra,efecte de finestres sacsejades,efecte de confirmació d'iniciada,efecte de diàleg principal,efecte d'enfosquiment en estar inactiu,efecte d'enfosquiment de la pantalla,efecte de diapositiva prèvia,decoració,efecte per a mostrar els FPS,efecte de mostrar el pintat,efecte de canvi de coberta,efecte de cub de l'escriptori,efecte d'animació del cub de l'escriptori,efecte de quadrícula de l'escriptori,efecte de canvi en roda,efecte de presentació de les finestres,efecte de redimensionat de la finestra,efecte de contrast del fons,bling,enfosquiment,moviment,efecte de resum de finestres,accessibilitat",
    "X-KDE-Keywords[ca]": "kwin,finestra,gestor,efecte,efectes 3D,efectes 2D,efectes gràfics,efectes d'escriptori,animacions,animacions diverses,efectes en la gestió de les finestres,efecte en el canvi de finestra,efecte en el canvi d'escriptori,animacions,animacions a l'escriptori,controladors,configuració dels controladors,renderització,render,efecte d'inversió,efecte d'aspecte de vidre,efecte de lupa,efecte ajudant del desplaçament,efecte de seguiment del ratolí,efecte de zoom,efecte de difuminat,efecte d'esvaïment,efecte d'esvaïment de l'escriptori,efecte de trencament,efecte de lliscament,efecte de ressaltat de la finestra,efecte en l'inici de la sessió,efecte en sortir de la sessió,efecte de làmpada màgica,efecte d'animació de la minimització,efecte de marca del ratolí,efecte d'apropament,efecte de captura de la pantalla,efecte de full,efecte de diapositiva,efecte de missatges emergents lliscants,efecte de miniatures laterals,translucidesa,efecte de translucidesa,transparència,efecte de geometria de la finestra,efecte de finestres sacsejades,efecte de confirmació d'engegada,efecte de diàleg principal,efecte d'enfosquiment en estar inactiu,efecte d'enfosquiment de la pantalla,efecte de diapositiva prèvia,decoració,efecte per a mostrar els FPS,efecte de mostrar el pintat,efecte de canvi de coberta,efecte de cub de l'escriptori,efecte d'animació del cub de l'escriptori,efecte de quadrícula de l'escriptori,efecte de canvi en roda,efecte de presentació de les finestres,efecte de redimensionat de la finestra,efecte de contrast del fons,bling,enfosquiment,moviment,efecte de resum de finestres,accessibilitat",
    "X-KDE-Keywords[en_GB]": "kwin,window,manager,effect,3D effects,2D effects,graphical effects,desktop effects,animations,various animations,window management effects,window switching effect,desktop switching effect,animations,desktop animations,drivers,driver settings,rendering,render,invert effect,looking glass effect,magnifier effect,snap helper effect,track mouse effect,zoom effect,blur effect,fade effect,fade desktop effect,fall apart effect,glide effect,highlight window effect,login effect,logout effect,magic lamp effect,minimize animation effect,mouse mark effect,scale effect,screenshot effect,sheet effect,slide effect,sliding popups effect,thumbnail aside effect,translucency,translucency effect,transparency,window geometry effect,wobbly windows effect,startup feedback effect,dialog parent effect,dim inactive effect,dim screen effect,slide back effect,eye candy,candy,show FPS effect,show paint effect,cover switch effect,desktop cube effect,desktop cube animation effect,desktop grid effect,flip switch effect,present windows effect,resize window effect,background contrast effect,bling,fading,movement,motion,overview windows effect,accessibility",
    "X-KDE-Keywords[es]": "kwin,ventana,gestor,efecto,efectos 3D,efectos 2D,efectos gráficos,efectos del escritorio,animaciones,animaciones diversas,efectos de la gestión de ventanas,efecto de cambio de ventana,efecto de cambio de escritorio,animaciones,animaciones del escritorio,controladores,preferencias del controlador,renderización,renderizar,efecto de inversión,efecto de espejo,efecto de lupa,efecto auxiliar de instantánea,efecto de seguimiento del ratón,efecto de ampliación,efecto borroso,efecto de desvanecimiento,efecto de desvanecimiento del escritorio,efecto de romper en pedazos,efecto de planeo,efecto de resaltar ventanas,efecto de inicio de sesión,efecto de final de sesión,efecto de lámpara mágica,efecto de animación al minimizar,efecto de marcas del ratón,efecto de escalado,efecto de captura de pantalla,efecto de hoja,efecto de deslizamiento,efecto de ventanas emergentes deslizantes,efecto de miniaturas laterales,transparencia,efecto de transparencia,efecto de geometría de las ventanas, efecto de ventanas gelatinosas,efecto de notificación de inicio,efecto de padre de la ventana,efecto de oscurecer inactiva,efecto de oscurecer la pantalla,efecto atrás,efectos atractivos,efecto de mostrar FPS,efecto de mostrar pintura,efecto de selección de ventana en modo carátula,efecto de cubo del escritorio,efecto de animación del cubo del escritorio,efecto de rejilla del escritorio,efecto de selección de ventana en modo cascada,efecto de presentación de ventanas,efecto de cambiar tamaño de las ventanas,efecto de contraste del fondo,desvanecimiento,movimiento,efecto de resumen de ventanas,accesibilidad",
    "X-KDE-Keywords[fr]": "kwin, fenêtre, gestionnaire, effet, effets 3D, effets 2D, effets graphiques, effets de bureau, animations, animations variées, effets de gestion des fenêtres, effets de changement de fenêtre, effets de changement de bureau, animations, animation du bureau, pilotes, paramètres du pilote, rendu, rendre, effet d'inversion, effet de verre, effet de loupe, effet d'assistant de photo, effet de repérage de la souris, effet de zoom, effet de flou, effet de fondu, effet de fondu du bureau, effet d'effondrement, effet de glissement, effet de mise en valeur de la fenêtre, effet de connexion, effet de déconnexion, effet de lampe magique, effet de minimisation de l'application, effet de marque de la souris, effet de dimensionnement, effet de capture d'écran, effet de feuille, effet de glisse, effet de glissement de menus contextuels, effet de vignettes sur le coté, translucidité, effet de translucidité, transparence, effet de transparence, effet de géométrie de la fenêtre, effet de fenêtre en gélatine, effet du témoin de démarrage, effet de dialogue parent, effet d'obscurcissement de fenêtre inactive, effets d'obscurcissement de l'écran, effet du rétro-éclairage de l'écran, agréable aux yeux, agréable, visuel, beauté, effet d'affichage du FPS, effet d'affichage des zones peintes, effet de défilement circulaire, effet de bureaux en cube, effet d'animation de cube de bureaux, effet de bureaux en grille, effet d'empilement en perspective, effet de présentation des fenêtres, effet de redimensionnement des fenêtres, effet de contraste du bureau, obscurcissement, mouvement, déplacement, effet d'aperçus des fenêtres, accessibilité",
    "X-KDE-Keywords[ia]": "kwin,window,manager,effect,3D effects,2D effects,graphical effects,desktop effects,animations,various animations,window management effects,window switching effect,desktop switching effect,animations,desktop animations,drivers,driver settings,rendering,render,invert effect,looking glass effect,magnifier effect,snap helper effect,track mouse effect,zoom effect,blur effect,fade effect,fade desktop effect,fall apart effect,glide effect,highlight window effect,login effect,logout effect,magic lamp effect,minimize animation effect,mouse mark effect,scale effect,screenshot effect,sheet effect,slide effect,sliding popups effect,thumbnail aside effect,translucency,translucency effect,transparency,window geometry effect,wobbly windows effect,startup feedback effect,dialog parent effect,dim inactive effect,dim screen effect,slide back effect,eye candy,candy,show FPS effect,show paint effect,cover switch effect,desktop cube effect,desktop cube animation effect,desktop grid effect,flip switch effect,present windows effect,resize window effect,background contrast effect,bling,fading,movement,motion,overview windows effect,accessibility",
    "X-KDE-Keywords[it]": "kwin,finestra,gestore,effetto,effetti 3D,effetti 2D,effetti grafici,effetti del desktop,animazioni,animazioni varie, effetti del gestore delle finestre,effetto del selettore delle finestre,effetto del selettore dei desktop,animazioni,animazioni del desktop,driver,impostazioni driver,rendering,render,effetto invertito,effetto vetro,effetto lente,effetto snap helper,effetto traccia mouse,effetto ingrandimento, effetto sfocatura,effetto dissolvenza,effetto dissolvenza desktop,effetto caduta,effetto planatura,effetto evidenziazione finestra,effetto schermata di accesso, effetto disconnessione,effetto lampada magica,effetto animazione di minimizzazione,effetto marcatura mouse, effetto scalatura,effetto schermata,effetto foglio,effetto diapositiva,effetto scivolamento,effetto miniature nella barra delle applicazioni,effetto miniatura su un lato,translucenza,effetto translucenza, trasparenza,effetto geometria finestra,effetto finestre tremolanti,effetto segnale di avvio,effetto finestra madre,effetto oscura finestra inattiva,effetto oscura schermo,effetto scivola all'indietro,gradevole,effetto gradevole,effetto mostra FPS,effetto ridisegno,effetto selezione delle copertine,effetto cubi del desktop,effetto animazione cubi del desktop,effetto griglia desktop,effetto selezione con inversione,effetto riquadro,effetto presentazione delle finestre,effetto ridimensionamento finestra,effetto contrasto dello sfondo,bling,dissolvenza,movimento,effetto panoramica delle finestre,accessibilità",
    "X-KDE-Keywords[ko]": "kwin,window,manager,effect,3D effects,2D effects,graphical effects,desktop effects,animations,various animations,window management effects,window switching effect,desktop switching effect,animations,desktop animations,drivers,driver settings,rendering,render,invert effect,looking glass effect,magnifier effect,snap helper effect,track mouse effect,zoom effect,blur effect,fade effect,fade desktop effect,fall apart effect,glide effect,highlight window effect,login effect,logout effect,magic lamp effect,minimize animation effect,mouse mark effect,scale effect,screenshot effect,sheet effect,slide effect,sliding popups effect,thumbnail aside effect,translucency,translucency effect,transparency,window geometry effect,wobbly windows effect,startup feedback effect,dialog parent effect,dim inactive effect,dim screen effect,slide back effect,eye candy,candy,show FPS effect,show paint effect,cover switch effect,desktop cube effect,desktop cube animation effect,desktop grid effect,flip switch effect,present windows effect,resize window effect,background contrast effect,bling,fading,movement,motion,overview windows effect,accessibility,창,관리자,효과,3D 효과,2D 효과,그래픽 효과,데스크톱 효과,애니메이션,창 관리자,창 관리자 효과,데스크톱 전환,데스크톱 전환 효과,드라이버,드라이버 설정,렌더링,렌더링 설정,애니메이션 속도,투명 유리 효과,확대 축소 효과,흐림 효과,대시보드 효과,페이드 효과,로그인 효과,창 강조 효과,글라이드 효과,로그아웃 효과,램프 효과,시트 효과,최소화 효과,최대화 효과,팝업 효과,접근성",
    "X-KDE-Keywords[nl]": "kwin,venster,beheerder,effect,3D effecten,2D effecten,grafische effecten,bureaubladeffecten,animaties,verschillende animaties,vensterbeheereffecten,vensteromschakeleffect,bureaublad-omschakeleffect,animaties,bureaubladanimaties,stuurprogramma's,stuurprogramma-instellingen,rendering,render,inversieeffect,vergrootglaseffect,vergrotingseffect,snaphelpereffect,trackmuiseffect,zoomeffect,vervagingseffect,uitvaageffect,uitvaagbureaubladeffect,uiteenvaleffect,glijeffect,vensteraccentueringseffect,aanmeldeffect,afmeldeffect,magische lampeffect,animatie-effect minimaliseren,muismarkeringseffect,schaaleffect,schermafdrukeffect,bladeneffect,dia-effect,glijdende pop-upseffect,miniatuur-opzijeffect,doorzichtigheid,doorzichtigheidseffect,transparantie,vensterafmetingeneffect,wiebelende vensterseffect,opstartterugkoppeleffect,dialoogoudereffect,dim bij inactiviteitseffect,dim het schermeffect,schuif terugeffect,oogstrelend,snoepgoed,FPS toneneffect,verf toneneffect,vakdeksel schakelaareffect,bureaublad kubuseffect,bureaublad kubus animatie-effect,bureaubladrastereffect,omschakeleffect,huidig venstereffect,wijzig grootte van venstereffect,achtergrondcontrasteffect,bling,vervagen,verplaatsing,beweging,overzichtvenstereffect,toegankelijkheid",
    "X-KDE-Keywords[pl]": "kwin,okno,menadżer,efekt,efekty 3D,efekty 2D,efekty graficzne,efekty pulpitu,animacje,różne animacje,efekty zarządzania oknami,efekty przełączania okien,efekty przełączania pulpitów,animacje,animacje pulpitu,sterowniki,ustawienia sterowników,renderowania, efekt odwrócenia,szkło powiększające,efekt powiększenia,efekt pomocnika przyciągania, efekt śledzenia myszy,efekt przybliżenia,rozmycie,tablica,efekt eksplozji,efekt zanikania,efekt zanikania pulpitu,efekt rozpadania,efekt slajdu,efekt podświetlania okna, efekt logowania,efekt wylogowywania,efekt magicznej lampy,efekt animacji minimalizacji, efekt znacznika myszy,efekt skalowania,efekt zrzutu ekranu,efekt arkusza,efekt slajdu,efekt wysuwających się elementów wyskakujących,efekt prześwitywania,przezroczystość,efekt geometrii okna,efekt chwiejnych okien,efekt odczuć przy starcie,efekt okna rodzica,efekt przyciemniania nieaktywnych,efekt przyciemniania ekranu,efekt przesuwania do tył,efekt pokazania ilości klatek na sekundę,efekt pokazywania malowania,efekt przewijania okładek,efekt sześcianu pulpitów,efekt animacji sześcianu pulpitów,efekt siatki pulpitów,efekt przełącznika,efekt przedstawienia okien,efekt zmiany rozmiaru okien,efekt kontrastu tła,bling,zanikanie,ruch,ruch,efekt przeglądu okien,dostępność",
    "X-KDE-Keywords[pt]": "kwin,janela,gestor,composição,efeito,efeitos 3D,efeitos 2D,OpenGL,XRender,configuração do vídeo,efeitos gráficos,efeitos do ecrã,animações,animações diversas,efeitos de gestão das janelas,efeito de mudança de janelas,efeito de mudança de ecrãs,animações,velocidade da animação,animações do ecrã,controladores,configuração dos controladores,desenho,efeito de inversão,efeito de lupa,efeito de lente,efeito de ajuda no ajuste, efeito de seguimento do rato,efeito de ampliação,efeito de borrão,efeito de quadro,efeito de explosão,efeito de desvanecimento,efeito de desvanecimento do ecrã,efeito de destruição,efeito de deslizamento,efeito de realce da janela,efeito na autenticação,efeito do encerramento,efeito de lâmpada mágica,efeito de animação na minimização,efeito de marcação com rato,efeito de escala,efeito de captura do ecrã,efeito de folha,efeito de mensagens deslizantes,efeito de miniaturas na barra de tarefas,efeito de miniaturas laterais,efeito de janelas a tremer,efeito do arranque inicial,efeito da janela-mãe,efeito de escurecimento de janelas inactivas,efeito de deslize para trás,efeitos visuais,beleza,efeito de apresentação das IPS,efeito de pintura,efeito de mudança em caixa,efeito de mudança de capas, efeito de animação do cubo do ecrã,efeito de grelha do ecrã,efeito de mudança por viragem,efeito de destaque,efeito de apresentação das janelas,efeito de dimensionamento das janelas,efeito de contraste do fundo,desvanecimento,movimento,efeito de visão geral das janelas",
    "X-KDE-Keywords[pt_BR]": "kwin,janela,gerenciador,efeito,efeitos 3D,efeitos 2D,efeitos gráficos,efeitos da área de trabalho,animações,animações diversas,efeitos do gerenciamento de janelas,efeito de mudança de janelas,efeito de mudança de área de trabalho,animações da área de trabalho,drivers,configuração dos drivers,desenho,renderização,efeito de inversão,efeito de lupa,efeito de lente,efeito de ajuda no ajuste,efeito de rastreamento do mouse,efeito de ampliação,efeito de borrão,efeito de escurecimento,efeito de escurecimento da área de trabalho,efeito de destruição,efeito de deslizamento,efeito de realce da janela,efeito na autenticação,efeito de encerramento de sessão,efeito de lâmpada mágica,efeito de animação na minimização,efeito de marcação com mouse,efeito em escala,efeito de captura de tela,efeito de folha,efeito de slide,efeito de mensagens deslizantes,efeito de miniaturas na barra de tarefas,transparência,efeito de transparência,efeito de geometria de janelas,efeito de janelas trêmulas,efeito do inicialização,efeito da janela-mãe,efeito de escurecimento de janelas inativas,efeito de deslize para trás,efeitos visuais,beleza,efeito de apresentação de FPS,efeito de pintura,efeito de mudança de capas,efeito de animação do cubo da área de trabalho,efeito de grade de áreas de trabalho,efeito de mudança em pilha,efeito de apresentação das janelas,efeito de dimensionamento das janelas,efeito de contraste de fundo,bling,esvanecimento, movimento,efeito de janela de visão geral,acessibilidade",
    "X-KDE-Keywords[sl]": "kwin,upravljalnik oken,učinek,učinki 3d,učinki 2d,grafični učinki,namizni učinki,animacije,različne animacije,upravljanje z okni,preklapljanje oken,preklapljanje namizij,namizne animacije,gonilniki,izrisovanje,upodabljanje,obrni,povečevalno steklo,pripenjalni pomagalnik,sledenje miški,približanje,zabriši,eksplozija,pojemanje,pojemanje namizja,razpad,drsenje,poudari okno,učinek prijave,učinek odjave,čarobna svetilka,animacija skrčenja,risanje,animirano pojavljanje,zaslonska slika,list,drsenje,drseča pojavna okna,sličice za opravilno vrstico,sličica ob strani,prosojnost,prozornost,geometrija okna,majava okna,odziv zagona,nadrejeno pogovorno okno,potemni nedejavno,potemni zaslon,zdrs v ozadje,vidni bonbončki,pokaži sličice na sekundo,izrisovanje,preklapljanje - škatla,preklapljanje - ovitki,kocka z namizji,animacija kocka z namizji,mreža namizij,preklapljanje - sklad,oris,učinek predstavitve okna,spreminjanje velikosti okna,učinek kontrasta ozadja,bling,bledenje,pomik,premik,učinek pregleda okna",
    "X-KDE-Keywords[sv]": "kwin,fönster,hanterare,effekt,3D-effekter,grafiska effekter,skrivbordseffekter,animeringar,diverse animeringar,fönsterhanteringseffekter,fönsterbyteseffekt,skrivbordsbyteseffekt,skrivbordsanimeringar,drivrutiner,drivrutininställningar,återgivning,återge,inverteringseffekt,förstoringsglaseffekt,förstoringseffekt,låshjälpeffekt,musföljningseffekt,zoomeffekt,suddighetseffekt,explosionseffekt,borttoningseffekt,skrivbordsborttoningseffekt,sönderfallseffekt,glidningseffekt,fönstermarkeringseffekt,inloggningseffekt,utloggningseffekt,magisk lampeffekt,minimeringsanimeringseffekt,musmarkeringseffekt,inskalningseffekt,skärmbildseffekt,bladeffekt,skjuteffekt,glidande ruteffekt,miniatyrbilder i aktivitetsfältet,miniatyrbild vid sidan om,genomskinlighet,genomskinlighetseffekt,fönstergeometrieffekt,ostadiga fönstereffekt,startgensvarseffekt,dialogrutors ägareffekt,dämpa inaktiva effekt,dämpa skärmen effekt,glid tillbaka effekt,ögongodis,godis.visa ramar/s effekt, visa uppritningseffekt,byte med ruta effekt,skrivbordskubeffekt,animeringseffekt för skrivbordskub,skrivbordsrutnätseffekt,blädderbyteseffekt,befintliga fönstereffekt,ändra fönsterstorlekseffekt,bakgrundskontrasteffekt,bling,borttoning,förflyttning,rörelse,översiktsfönstereffekt,handikappstöd",
    "X-KDE-Keywords[tr]": "kwin,pencere,yönetici,efekt,3D efektler,2D efektler,grafiksel efektler,masaüstü efektleri,canlandırmalar,çeşitli canlandırmalar,pencere yönetimi efektleri,pencere geçiş efekti,masaüstü geçiş efekti,canlandırmalar,canlandırma hızı,masaüstü canlandırmaları,sürücüler,sürücü ayarları,hazırlama,hazırla,ters efekt,gözlük efekti,büyüteç efekti,yakalama yardımcısı efekti,fareyi izleme efekti,yakınlaştırma efekti,buğu efekti,pano efekti,patlama efekti,kaybolma efekti,masasütü kaybolma efekti,düşme efekti,sürülme efekti,pencere vurgulama efekti,oturum açma efekti,oturum kapatma efekti,sihirli lamba efekti,küçültme canlandırması efekti,fare işaretleme efekti,boyutlandırma efekti,ekran yakalama efekti,kağıt efekti,kaydırma efekti,kayan pencereler efekti,görev çubuğu önizlemeleri efekti,önizleme gösterme efekti,saydamlık,saydamlık efekti,yarı saydamlık,pencere geometri efekti,sallanan pencereler efekti,başlatma geri bildirim efekti,üst pencere efekti,etkin olmayanı soldurma efekti,ekranı soldurma efekti,geri kayma efekti,göz alıcı,şeker,FPS gösterme efekti,boyama gösterme efekti,kutu değiştirme efekti,kapak değiştirme efekti,masaüstü küp efekti,masaüstü küp canlandırması efekti,masaüstü ızgara efekti,döndürme geçişi efekti,dış kenarlık efekti,güncel pencereler efekti,pencereyi yeniden boyutlandırma efekti,arka plan karşıtlık efekti,şıkır,solma,taşıma,hareket,pencere genel görünüm efekti,erişilebilirlik,yarı saydamlık efekti",
    "X-KDE-Keywords[uk]": "kwin,window,manager,effect,3D effects,2D effects,graphical effects,desktop effects,animations,various animations,window management effects,window switching effect,desktop switching effect,animations,desktop animations,drivers,driver settings,rendering,render,invert effect,looking glass effect,magnifier effect,snap helper effect,track mouse effect,zoom effect,blur effect,fade effect,fade desktop effect,fall apart effect,glide effect,highlight window effect,login effect,logout effect,magic lamp effect,minimize animation effect,mouse mark effect,scale in effect,screenshot effect,sheet effect,slide effect,sliding popups effect,taskbar thumbnails effect,thumbnail aside effect,translucency,translucency effect,transparency,window geometry effect,wobbly windows effect,startup feedback effect,dialog parent effect,dim inactive effect,dim screen effect,slide back effect,eye candy,candy,show FPS effect,show paint effect,box switch effect,cover switch effect,desktop cube effect,desktop cube animation effect,desktop grid effect,flip switch effect,outline effect,present windows effect,resize window effect,bling,fading,movement,motion,overview windows effect,accessibility,вікно,керування вікнами,менеджер вікон,ефект,просторовий,плоский,параметри відео,графічні ефекти,анімації,анімація,перемикання вікон,драйвери,параметри драйверів,показ,відтворення,інвертування,інверсія,збільшувальне скло,збільшення,прилипання,шлейф за вказівником,шлейф,масштабування,масштаб,зміна розмірів,розмивання,панель,згасання,поява,ковзання,підсвічування,підсвічування вікон,вихід,магічна лампа,чарівна лампа,джин,аркуші,стос,знімок екрана,мініатюри панелі задач,мініатюри,прозорість,ефект прозорості,желе,желейні вікна,супровід запуску,стрибунець,притлумлення,сірість,прикраси,показ частоти,малювання,обкладинки,стрибання,контур,поточні вікна,зміна розмірів,блимання,тьмянішати,тьмяніння,притлумлення,притлумити,рух,пересування,ефект огляду вікон,доступність",
    "X-KDE-Keywords[vi]": "cửa sổ,trình quản lí,hiệu ứng,hiệu ứng 3D,hiệu ứng 2D,hiệu ứng đồ hoạ,hiệu ứng bàn làm việc,hiệu ứng động,nhiều hiệu ứng động,hiệu ứng quản lí cửa sổ,hiệu ứng chuyển cửa sổ,hiệu ứng chuyển bàn làm việc,hiệu ứng động bàn làm việc,trình điều khiển,thiết lập trình điều khiển,kết xuất,hiệu ứng đảo,hiệu ứng kính lúp,hiệu ứng phóng to,hiệu ứng trợ giúp nhanh,hiệu ứng theo dõi chuột,hiệu ứng thu phóng,hiệu ứng mờ,hiệu ứng làm mờ dần,hiệu ứng làm mờ dần bàn làm việc,hiệu ứng tan vỡ,hiệu ứng lướt,hiệu ứng tô sáng cửa sổ,hiệu ứng đăng nhập,hiệu ứng đăng xuất,hiệu ứng đèn thần,hiệu ứng động thu nhỏ,hiệu ứng vết chuột,hiệu ứng đổi cỡ,hiệu ứng ảnh chụp màn hình,hiệu ứng tấm mỏng,hiệu ứng trượt,hiệu ứng ô bật lên dạng trượt,hiệu ứng hình nhỏ ở cạnh,độ trong mờ,hiệu ứng độ trong mờ,độ trong suốt,hiệu ứng hình dạng của cửa sổ,hiệu ứng cửa sổ lắc lư,hiệu ứng phản hồi khởi động,hiệu ứng cha hộp thoại,hiệu ứng làm tối bất hoạt,hiệu ứng làm tối màn hình,hiệu ứng trượt lùi,đẹp mắt,hiệu ứng hiện FPS,hiệu ứng hiện sơn,hiệu ứng chuyển kiểu trang bìa,hiệu ứng khối hộp bàn làm việc,hiệu ứng động khối hộp bàn làm việc,hiệu ứng lưới bàn làm việc,hiệu ứng chuyển kiểu lật,hiệu ứng các cửa sổ hiện thời,hiệu ứng đổi cỡ cửa sổ,hiệu ứng tương phản nền,nhấp nháy,ngả màu,chuyển động,cử động,hiệu ứng tổng quan cửa sổ,hỗ trợ truy cập",
    "X-KDE-Keywords[x-test]": "xxkwinxx,xxwindowxx,xxmanagerxx,xxeffectxx,xx3D effectsxx,xx2D effectsxx,xxgraphical effectsxx,xxdesktop effectsxx,xxanimationsxx,xxvarious animationsxx,xxwindow management effectsxx,xxwindow switching effectxx,xxdesktop switching effectxx,xxanimationsxx,xxdesktop animationsxx,xxdriversxx,xxdriver settingsxx,xxrenderingxx,xxrenderxx,xxinvert effectxx,xxlooking glass effectxx,xxmagnifier effectxx,xxsnap helper effectxx,xxtrack mouse effectxx,xxzoom effectxx,xxblur effectxx,xxfade effectxx,xxfade desktop effectxx,xxfall apart effectxx,xxglide effectxx,xxhighlight window effectxx,xxlogin effectxx,xxlogout effectxx,xxmagic lamp effectxx,xxminimize animation effectxx,xxmouse mark effectxx,xxscale effectxx,xxscreenshot effectxx,xxsheet effectxx,xxslide effectxx,xxsliding popups effectxx,xxthumbnail aside effectxx,xxtranslucencyxx,xxtranslucency effectxx,xxtransparencyxx,xxwindow geometry effectxx,xxwobbly windows effectxx,xxstartup feedback effectxx,xxdialog parent effectxx,xxdim inactive effectxx,xxdim screen effectxx,xxslide back effectxx,xxeye candyxx,xxcandyxx,xxshow FPS effectxx,xxshow paint effectxx,xxcover switch effectxx,xxdesktop cube effectxx,xxdesktop cube animation effectxx,xxdesktop grid effectxx,xxflip switch effectxx,xxpresent windows effectxx,xxresize window effectxx,xxbackground contrast effectxx,xxblingxx,xxfadingxx,xxmovementxx,xxmotionxx,xxoverview windows effectxx,xxaccessibilityxx",
    "X-KDE-Keywords[zh_CN]": "kwin,window,manager,effect,3D effects,2D effects,graphical effects,desktop effects,animations,various animations,window management effects,window switching effect,desktop switching effect,animations,desktop animations,drivers,driver settings,rendering,render,invert effect,looking glass effect,magnifier effect,snap helper effect,track mouse effect,zoom effect,blur effect,explosion effect,fade effect,fade desktop effect,fall apart effect,glide effect,highlight window kwin,window,manager,effect,3D effects,2D effects,graphical effects,desktop effects,animations,various animations,window management effects,window switching effect,desktop switching effect,animations,desktop animations,drivers,driver settings,rendering,render,invert effect,looking glass effect,magnifier effect,snap helper effect,track mouse effect,zoom effect,blur effect,fade effect,fade desktop effect,fall apart effect,glide effect,highlight window effect,login effect,logout effect,magic lamp effect,minimize animation effect,mouse mark effect,scale effect,screenshot effect,sheet effect,slide effect,sliding popups effect,thumbnail aside effect,translucency,translucency effect,transparency,window geometry effect,wobbly windows effect,startup feedback effect,dialog parent effect,dim inactive effect,dim screen effect,slide back effect,eye candy,candy,show FPS effect,show paint effect,cover switch effect,desktop cube effect,desktop cube animation effect,desktop grid effect,flip switch effect,present windows effect,resize window effect,background contrast effect,窗口,管理,特效,3D 特效,2D 特效,图形特效,桌面特效,动画,窗口管理特效,窗口切换特效,桌面切换特效,桌面动画,驱动,去掉设置,渲染,反色,放大镜特效,鼠标跟踪,缩放特效,模糊特效,渐变特效,破碎特效,滑动特效,高亮窗口,登录特效,注销特效,神灯特效,最小化动画,鼠标标记,截屏,飘落,滑动弹出窗口,缩略图置边,透明特效,摇摆窗口,启动反馈特效,程序启动动效,黯淡对话框特效,黯淡屏幕特效,视觉效果,显示 FPS 特效,显示绘制区域特效,封面切换特效,桌面立方体特效,桌面立方体动画特效,翻转切换特效,展示窗口特效,调整窗口大小特效,背景对比特效,闪光,闪耀,闪动,消失,渐变,渐入,渐出,动态,总览,概览,窗口概览特效,无障碍,辅助功能,无障碍辅助",
    "X-KDE-ParentApp": "kcontrol",
    "X-KDE-System-Settings-Parent-Category": "desktopbehavior",
    "X-KDE-Weight": 50
}
