{
    "KPackageStructure": "KWin/Effect",
    "KPlugin": {
        "Authors": [
            {
                "Email": "mart@kde.org",
                "Name": "Marco Martin",
                "Name[ar]": "ماركو مارتن",
                "Name[az]": "Marco Martin",
                "Name[bg]": "Marco Martin",
                "Name[ca@valencia]": "Marco Martin",
                "Name[ca]": "Marco Martin",
                "Name[cs]": "Marco Martin",
                "Name[de]": "Marco Martin",
                "Name[en_GB]": "Marco Martin",
                "Name[es]": "Marco Martin",
                "Name[eu]": "Marco Martin",
                "Name[fi]": "Marco Martin",
                "Name[fr]": "Marco Martin",
                "Name[hu]": "Marco Martin",
                "Name[ia]": "Marco Martin",
                "Name[id]": "Marco Martin",
                "Name[it]": "Marco Martin",
                "Name[ja]": "Marco Martin",
                "Name[ka]": "Marco Martin",
                "Name[ko]": "Marco Martin",
                "Name[lt]": "Marco Martin",
                "Name[nl]": "Marco Martin",
                "Name[nn]": "Marco Martin",
                "Name[pl]": "Marco Martin",
                "Name[pt]": "Marco Martin",
                "Name[pt_BR]": "Marco Martin",
                "Name[ro]": "Marco Martin",
                "Name[ru]": "Marco Martin",
                "Name[sk]": "Marco Martin",
                "Name[sl]": "Marco Martin",
                "Name[sv]": "Marco Martin",
                "Name[ta]": "மார்கோ மார்ட்டின்",
                "Name[tr]": "Marco Martin",
                "Name[uk]": "Marco Martin",
                "Name[vi]": "Marco Martin",
                "Name[x-test]": "xxMarco Martinxx",
                "Name[zh_CN]": "Marco Martin",
                "Name[zh_TW]": "Marco Martin"
            }
        ],
        "Category": "Appearance",
        "Description": "Cross fade animation when Tooltips or Notifications change their geometry",
        "Description[ar]": "تحريك التلاشي المتقاطع عندما يغير التلميح أو الإشعار من أبعاده",
        "Description[bg]": "Кръстосано преливане, когато подсказките или известията променят геометрията си",
        "Description[ca@valencia]": "Animació d'esvaïment creuat quan els consells d'eines o les notificacions canvien la seua geometria",
        "Description[ca]": "Animació d'esvaïment creuat quan els consells d'eines o les notificacions canvien la seva geometria",
        "Description[es]": "Animación cruzada cuando las ayudas emergentes o las notificaciones cambian su geometría",
        "Description[eu]": "Desagertze gurutzatua tresnen argibideek edo jakinarazpenek geometria aldatzen dutenean",
        "Description[fr]": "Animation en fondu enchaîné lorsque des infobulles ou des notifications modifient leurs géométries",
        "Description[it]": "Animazione in dissolvenza quando i suggerimenti e le notifiche cambiano la loro geometria",
        "Description[nl]": "Verwissel animatie van opkomen/vervagen wanneer tekstballonnen of meldingen hun geometrie wijzigen",
        "Description[pt]": "Animações desvanecidas quando as dicas ou notificações mudam de tamanho",
        "Description[sl]": "Animacija navzkrižnega preliva, ko se orodnim namigom ali obvestilom spremeni geometrija",
        "Description[ta]": "கருவித்துப்புகளின் மற்றும் அறிவிப்புகளின் அளவை மாற்றும்போது அவற்றை மங்கசெய்து மாற்றும்",
        "Description[tr]": "Araç ipuçları veya bildirimler boyutları değiştiğinde gösterilecek çapraz geçiş canlandırması",
        "Description[uk]": "Анімація зі зміною освітленості під час зміни геометрії панелей підказок і сповіщень",
        "Description[x-test]": "xxCross fade animation when Tooltips or Notifications change their geometryxx",
        "EnabledByDefault": true,
        "Icon": "preferences-system-windows-effect-morphingpopups",
        "Id": "kwin4_effect_morphingpopups",
        "License": "GPL",
        "Name": "Morphing popups",
        "Name[ar]": "المنبثقات المتحورة",
        "Name[bg]": "Променящи се изскачащи прозорци",
        "Name[ca@valencia]": "Missatges emergents en metamorfosi",
        "Name[ca]": "Missatges emergents en metamorfosi",
        "Name[es]": "Transformación de ventanas emergentes",
        "Name[eu]": "Eraldatzen diren gainerakorrak",
        "Name[fr]": "Effectuer un fondu enchaîné des infobulles",
        "Name[it]": "Finestre a comparsa che si trasformano",
        "Name[ka]": "ტრანსფორმირებადი მხტუნარები",
        "Name[nl]": "Morphing popups",
        "Name[pt]": "Janelas mutantes",
        "Name[sl]": "Morfani pojavni gradniki",
        "Name[ta]": "தெரித்தெழுபவை திரிவது",
        "Name[tr]": "Dönüşen açılır pencereler",
        "Name[uk]": "Аморфні контекстні панелі",
        "Name[x-test]": "xxMorphing popupsxx",
        "Version": "1",
        "Website": ""
    },
    "X-KDE-Ordering": "60",
    "X-KDE-ParentApp": "",
    "X-KWin-Video-Url": "https://files.kde.org/plasma/kwin/effect-videos/morphingpopups.ogv",
    "X-Plasma-API": "javascript",
    "X-Plasma-MainScript": "code/morphingpopups.js"
}
